%YAML 1.1
%TAG !u! tag:unity3d.com,2011:
--- !u!1 &1631318897315272012
GameObject:
  m_ObjectHideFlags: 0
  m_CorrespondingSourceObject: {fileID: 0}
  m_PrefabInstance: {fileID: 0}
  m_PrefabAsset: {fileID: 0}
  serializedVersion: 6
  m_Component:
  - component: {fileID: 1631318897315272051}
  m_Layer: 0
  m_Name: Vertex
  m_TagString: Untagged
  m_Icon: {fileID: 0}
  m_NavMeshLayer: 0
  m_StaticEditorFlags: 0
  m_IsActive: 1
--- !u!4 &1631318897315272051
Transform:
  m_ObjectHideFlags: 0
  m_CorrespondingSourceObject: {fileID: 0}
  m_PrefabInstance: {fileID: 0}
  m_PrefabAsset: {fileID: 0}
  m_GameObject: {fileID: 1631318897315272012}
  m_LocalRotation: {x: 0, y: 0, z: 0, w: 1}
  m_LocalPosition: {x: 0, y: 0, z: 0}
  m_LocalScale: {x: 1.7267765, y: 1.0328023, z: 1.7785797}
  m_Children:
  - {fileID: 1631318896040375244}
  m_Father: {fileID: 0}
  m_RootOrder: 0
  m_LocalEulerAnglesHint: {x: 0, y: 0, z: 0}
--- !u!1001 &1631318896040082206
PrefabInstance:
  m_ObjectHideFlags: 0
  serializedVersion: 2
  m_Modification:
    m_TransformParent: {fileID: 1631318897315272051}
    m_Modifications:
    - target: {fileID: 117454, guid: bfee7f51af0b8d54aa0728f21d1147bb, type: 3}
      propertyPath: m_Name
      value: SM_Env_Rock_Flat_Platform_Large_02
      objectReference: {fileID: 0}
    - target: {fileID: 493778, guid: bfee7f51af0b8d54aa0728f21d1147bb, type: 3}
      propertyPath: m_LocalPosition.x
      value: 0
      objectReference: {fileID: 0}
    - target: {fileID: 493778, guid: bfee7f51af0b8d54aa0728f21d1147bb, type: 3}
      propertyPath: m_LocalPosition.y
      value: 0
      objectReference: {fileID: 0}
    - target: {fileID: 493778, guid: bfee7f51af0b8d54aa0728f21d1147bb, type: 3}
      propertyPath: m_LocalPosition.z
      value: 0
      objectReference: {fileID: 0}
    - target: {fileID: 493778, guid: bfee7f51af0b8d54aa0728f21d1147bb, type: 3}
      propertyPath: m_LocalRotation.x
      value: 0
      objectReference: {fileID: 0}
    - target: {fileID: 493778, guid: bfee7f51af0b8d54aa0728f21d1147bb, type: 3}
      propertyPath: m_LocalRotation.y
      value: 0
      objectReference: {fileID: 0}
    - target: {fileID: 493778, guid: bfee7f51af0b8d54aa0728f21d1147bb, type: 3}
      propertyPath: m_LocalRotation.z
      value: 0
      objectReference: {fileID: 0}
    - target: {fileID: 493778, guid: bfee7f51af0b8d54aa0728f21d1147bb, type: 3}
      propertyPath: m_LocalRotation.w
      value: 1
      objectReference: {fileID: 0}
    - target: {fileID: 493778, guid: bfee7f51af0b8d54aa0728f21d1147bb, type: 3}
      propertyPath: m_RootOrder
      value: 0
      objectReference: {fileID: 0}
    - target: {fileID: 493778, guid: bfee7f51af0b8d54aa0728f21d1147bb, type: 3}
      propertyPath: m_LocalEulerAnglesHint.x
      value: 0
      objectReference: {fileID: 0}
    - target: {fileID: 493778, guid: bfee7f51af0b8d54aa0728f21d1147bb, type: 3}
      propertyPath: m_LocalEulerAnglesHint.y
      value: 0
      objectReference: {fileID: 0}
    - target: {fileID: 493778, guid: bfee7f51af0b8d54aa0728f21d1147bb, type: 3}
      propertyPath: m_LocalEulerAnglesHint.z
      value: 0
      objectReference: {fileID: 0}
    m_RemovedComponents: []
  m_SourcePrefab: {fileID: 100100000, guid: bfee7f51af0b8d54aa0728f21d1147bb, type: 3}
--- !u!4 &1631318896040375244 stripped
Transform:
  m_CorrespondingSourceObject: {fileID: 493778, guid: bfee7f51af0b8d54aa0728f21d1147bb,
    type: 3}
  m_PrefabInstance: {fileID: 1631318896040082206}
  m_PrefabAsset: {fileID: 0}
